EESchema Schematic File Version 4
EELAYER 30 0
EELAYER END
$Descr A4 11693 8268
encoding utf-8
Sheet 4 4
Title "LED Status  by Hope Ngwenya"
Date "2021-05-30"
Rev "01"
Comp "EEE3088F Design"
Comment1 "Display LED Output "
Comment2 ""
Comment3 ""
Comment4 ""
$EndDescr
$Comp
L Timer:NE555D U2
U 1 1 60AFB730
P 2950 3200
F 0 "U2" H 2950 3781 50  0000 C CNN
F 1 "NE555D" H 2950 3690 50  0000 C CNN
F 2 "Package_SO:MSOP-8_3x3mm_P0.65mm" H 3800 2800 50  0001 C CNN
F 3 "http://www.ti.com/lit/ds/symlink/ne555.pdf" H 3800 2800 50  0001 C CNN
	1    2950 3200
	1    0    0    -1  
$EndComp
Wire Wire Line
	2450 3000 2100 3000
Wire Wire Line
	1800 3000 1800 3800
Wire Wire Line
	1800 3800 2950 3800
Wire Wire Line
	3450 3400 3900 3400
Wire Wire Line
	3900 3400 3900 3800
Connection ~ 3900 3800
Wire Wire Line
	3900 3800 3900 4450
Wire Wire Line
	3450 3200 3650 3200
Wire Wire Line
	3650 3200 3650 3050
Wire Wire Line
	3650 3050 3900 3050
$Comp
L Device:R_US R8
U 1 1 60B0230E
P 3900 3250
F 0 "R8" H 3968 3296 50  0000 L CNN
F 1 "620k" H 3968 3205 50  0000 L CNN
F 2 "Resistor_THT:R_Axial_DIN0204_L3.6mm_D1.6mm_P7.62mm_Horizontal" V 3940 3240 50  0001 C CNN
F 3 "~" H 3900 3250 50  0001 C CNN
	1    3900 3250
	1    0    0    -1  
$EndComp
Connection ~ 3900 3400
$Comp
L Device:R_US R7
U 1 1 60B0317E
P 3900 2850
F 0 "R7" H 3968 2896 50  0000 L CNN
F 1 "150k" H 3968 2805 50  0000 L CNN
F 2 "Resistor_THT:R_Axial_DIN0204_L3.6mm_D1.6mm_P7.62mm_Horizontal" V 3940 2840 50  0001 C CNN
F 3 "~" H 3900 2850 50  0001 C CNN
	1    3900 2850
	1    0    0    -1  
$EndComp
Wire Wire Line
	3900 3000 3900 3050
Connection ~ 3900 3050
Wire Wire Line
	3900 3050 3900 3100
Wire Wire Line
	3900 2700 3900 1200
$Comp
L pspice:C C3
U 1 1 60B05605
P 3900 4700
F 0 "C3" H 4078 4746 50  0000 L CNN
F 1 "47u" H 4078 4655 50  0000 L CNN
F 2 "Capacitor_THT:CP_Radial_D4.0mm_P1.50mm" H 3900 4700 50  0001 C CNN
F 3 "~" H 3900 4700 50  0001 C CNN
	1    3900 4700
	1    0    0    -1  
$EndComp
$Comp
L pspice:C C4
U 1 1 60B0712E
P 4350 1450
F 0 "C4" H 4528 1496 50  0000 L CNN
F 1 "10u" H 4528 1405 50  0000 L CNN
F 2 "Capacitor_THT:CP_Radial_D4.0mm_P1.50mm" H 4350 1450 50  0001 C CNN
F 3 "~" H 4350 1450 50  0001 C CNN
	1    4350 1450
	1    0    0    -1  
$EndComp
Wire Wire Line
	2450 3400 2100 3400
Wire Wire Line
	2100 1200 3200 1200
Wire Wire Line
	2100 1200 2100 3000
Connection ~ 3900 1200
Wire Wire Line
	3900 1200 4350 1200
Connection ~ 4350 1200
Wire Wire Line
	2950 2800 3200 2800
Wire Wire Line
	3200 2800 3200 1200
Connection ~ 3200 1200
Wire Wire Line
	3200 1200 3900 1200
Wire Wire Line
	2950 3600 2950 3800
Wire Wire Line
	3900 4950 3900 5250
NoConn ~ 2100 3000
NoConn ~ 2950 3800
$Comp
L power:GND #PWR013
U 1 1 60B0C1AD
P 2950 5250
F 0 "#PWR013" H 2950 5000 50  0001 C CNN
F 1 "GND" H 2955 5077 50  0000 C CNN
F 2 "" H 2950 5250 50  0001 C CNN
F 3 "" H 2950 5250 50  0001 C CNN
	1    2950 5250
	1    0    0    -1  
$EndComp
$Comp
L power:GND #PWR014
U 1 1 60B0C745
P 3900 5250
F 0 "#PWR014" H 3900 5000 50  0001 C CNN
F 1 "GND" H 3905 5077 50  0000 C CNN
F 2 "" H 3900 5250 50  0001 C CNN
F 3 "" H 3900 5250 50  0001 C CNN
	1    3900 5250
	1    0    0    -1  
$EndComp
Wire Wire Line
	3450 3000 3450 2550
Wire Wire Line
	3450 2550 4600 2550
Wire Wire Line
	6100 2850 6000 2850
$Comp
L power:GND #PWR016
U 1 1 60B0E846
P 6000 5350
F 0 "#PWR016" H 6000 5100 50  0001 C CNN
F 1 "GND" H 6005 5177 50  0000 C CNN
F 2 "" H 6000 5350 50  0001 C CNN
F 3 "" H 6000 5350 50  0001 C CNN
	1    6000 5350
	1    0    0    -1  
$EndComp
Wire Wire Line
	4600 2550 4600 2750
Wire Wire Line
	4600 2750 5600 2750
Wire Wire Line
	5600 1200 5600 1800
Wire Wire Line
	4350 1200 5600 1200
Wire Wire Line
	5600 3050 5600 4850
Wire Wire Line
	5600 4850 6000 4850
Connection ~ 6000 4850
Wire Wire Line
	6000 4850 6000 5350
$Comp
L Device:R_US R10
U 1 1 60B16DA5
P 7250 4450
F 0 "R10" H 7318 4496 50  0000 L CNN
F 1 "1k" H 7318 4405 50  0000 L CNN
F 2 "Resistor_THT:R_Axial_DIN0204_L3.6mm_D1.6mm_P7.62mm_Horizontal" V 7290 4440 50  0001 C CNN
F 3 "~" H 7250 4450 50  0001 C CNN
	1    7250 4450
	1    0    0    -1  
$EndComp
$Comp
L Device:R_US R11
U 1 1 60B179FC
P 8150 4450
F 0 "R11" H 8218 4496 50  0000 L CNN
F 1 "1k" H 8218 4405 50  0000 L CNN
F 2 "Resistor_THT:R_Axial_DIN0204_L3.6mm_D1.6mm_P7.62mm_Horizontal" V 8190 4440 50  0001 C CNN
F 3 "~" H 8150 4450 50  0001 C CNN
	1    8150 4450
	1    0    0    -1  
$EndComp
$Comp
L Device:R_US R12
U 1 1 60B17E4D
P 9250 4450
F 0 "R12" H 9318 4496 50  0000 L CNN
F 1 "1k" H 9318 4405 50  0000 L CNN
F 2 "Resistor_THT:R_Axial_DIN0204_L3.6mm_D1.6mm_P7.62mm_Horizontal" V 9290 4440 50  0001 C CNN
F 3 "~" H 9250 4450 50  0001 C CNN
	1    9250 4450
	1    0    0    -1  
$EndComp
$Comp
L Device:R_US R9
U 1 1 60B1906E
P 5600 2550
F 0 "R9" H 5668 2596 50  0000 L CNN
F 1 "10k" H 5668 2505 50  0000 L CNN
F 2 "Resistor_THT:R_Axial_DIN0204_L3.6mm_D1.6mm_P7.62mm_Horizontal" V 5640 2540 50  0001 C CNN
F 3 "~" H 5600 2550 50  0001 C CNN
	1    5600 2550
	1    0    0    -1  
$EndComp
$Comp
L pspice:C C5
U 1 1 60B19445
P 5600 2050
F 0 "C5" H 5778 2096 50  0000 L CNN
F 1 "10u" H 5778 2005 50  0000 L CNN
F 2 "Capacitor_THT:CP_Radial_D4.0mm_P1.50mm" H 5600 2050 50  0001 C CNN
F 3 "~" H 5600 2050 50  0001 C CNN
	1    5600 2050
	1    0    0    -1  
$EndComp
$Comp
L pspice:DIODE D3
U 1 1 60B19EA6
P 7800 3650
F 0 "D3" H 7800 3915 50  0000 C CNN
F 1 "DIODE" H 7800 3824 50  0000 C CNN
F 2 "Diode_THT:D_A-405_P2.54mm_Vertical_KathodeUp" H 7800 3650 50  0001 C CNN
F 3 "~" H 7800 3650 50  0001 C CNN
	1    7800 3650
	1    0    0    -1  
$EndComp
$Comp
L pspice:DIODE D2
U 1 1 60B1B203
P 7800 3150
F 0 "D2" H 7800 3415 50  0000 C CNN
F 1 "DIODE" H 7800 3324 50  0000 C CNN
F 2 "Diode_THT:D_A-405_P2.54mm_Vertical_KathodeUp" H 7800 3150 50  0001 C CNN
F 3 "~" H 7800 3150 50  0001 C CNN
	1    7800 3150
	1    0    0    -1  
$EndComp
$Comp
L pspice:DIODE D7
U 1 1 60B1B6DD
P 8950 1800
F 0 "D7" H 8950 2065 50  0000 C CNN
F 1 "DIODE" H 8950 1974 50  0000 C CNN
F 2 "Diode_THT:D_A-405_P2.54mm_Vertical_KathodeUp" H 8950 1800 50  0001 C CNN
F 3 "~" H 8950 1800 50  0001 C CNN
	1    8950 1800
	1    0    0    -1  
$EndComp
Wire Wire Line
	7250 3850 7250 4300
Wire Wire Line
	8150 4300 8150 4000
Wire Wire Line
	8150 3150 8000 3150
Wire Wire Line
	8150 3650 8000 3650
Connection ~ 8150 3650
Wire Wire Line
	8150 3650 8150 3300
Wire Wire Line
	7400 3250 7400 3150
Wire Wire Line
	7400 1800 8750 1800
Wire Wire Line
	7500 3550 7500 3650
Wire Wire Line
	7500 4000 8150 4000
$Comp
L pspice:DIODE D8
U 1 1 60B2EAB5
P 9000 2400
F 0 "D8" H 9000 2665 50  0000 C CNN
F 1 "DIODE" H 9000 2574 50  0000 C CNN
F 2 "Diode_THT:D_A-405_P2.54mm_Vertical_KathodeUp" H 9000 2400 50  0001 C CNN
F 3 "~" H 9000 2400 50  0001 C CNN
	1    9000 2400
	1    0    0    -1  
$EndComp
$Comp
L pspice:DIODE D5
U 1 1 60B2F6EE
P 8900 3450
F 0 "D5" H 8900 3715 50  0000 C CNN
F 1 "DIODE" H 8900 3624 50  0000 C CNN
F 2 "Diode_THT:D_A-405_P2.54mm_Vertical_KathodeUp" H 8900 3450 50  0001 C CNN
F 3 "~" H 8900 3450 50  0001 C CNN
	1    8900 3450
	1    0    0    -1  
$EndComp
$Comp
L pspice:DIODE D6
U 1 1 60B2FB63
P 8900 4000
F 0 "D6" H 8900 4265 50  0000 C CNN
F 1 "DIODE" H 8900 4174 50  0000 C CNN
F 2 "Diode_THT:D_A-405_P2.54mm_Vertical_KathodeUp" H 8900 4000 50  0001 C CNN
F 3 "~" H 8900 4000 50  0001 C CNN
	1    8900 4000
	1    0    0    -1  
$EndComp
Wire Wire Line
	8800 2400 7500 2400
Wire Wire Line
	7500 2400 7500 3150
Wire Wire Line
	9150 1800 9250 1800
Wire Wire Line
	9250 1800 9250 2400
Wire Wire Line
	9100 4000 9250 4000
Connection ~ 9250 4000
Wire Wire Line
	9250 4000 9250 4300
Wire Wire Line
	9100 3450 9250 3450
Connection ~ 9250 3450
Wire Wire Line
	9250 3450 9250 4000
Wire Wire Line
	9200 2400 9250 2400
Connection ~ 9250 2400
Wire Wire Line
	9250 2400 9250 3450
Wire Wire Line
	5600 2300 5600 2400
Wire Wire Line
	5600 2700 5600 2750
Connection ~ 5600 3050
$Comp
L Device:LED D1
U 1 1 60B39BEA
P 7250 4950
F 0 "D1" V 7289 4832 50  0000 R CNN
F 1 "LED" V 7198 4832 50  0000 R CNN
F 2 "LED_THT:LED_D3.0mm" H 7250 4950 50  0001 C CNN
F 3 "~" H 7250 4950 50  0001 C CNN
	1    7250 4950
	0    -1   -1   0   
$EndComp
$Comp
L Device:LED D4
U 1 1 60B3A525
P 8150 4950
F 0 "D4" V 8189 4832 50  0000 R CNN
F 1 "LED" V 8098 4832 50  0000 R CNN
F 2 "LED_THT:LED_D3.0mm" H 8150 4950 50  0001 C CNN
F 3 "~" H 8150 4950 50  0001 C CNN
	1    8150 4950
	0    -1   -1   0   
$EndComp
$Comp
L Device:LED D9
U 1 1 60B3A9BC
P 9250 4950
F 0 "D9" V 9289 4832 50  0000 R CNN
F 1 "LED" V 9198 4832 50  0000 R CNN
F 2 "LED_THT:LED_D3.0mm" H 9250 4950 50  0001 C CNN
F 3 "~" H 9250 4950 50  0001 C CNN
	1    9250 4950
	0    -1   -1   0   
$EndComp
Wire Wire Line
	7250 4600 7250 4800
Wire Wire Line
	8150 4600 8150 4800
Wire Wire Line
	9250 4800 9250 4600
Wire Wire Line
	7250 5100 7250 5400
Wire Wire Line
	7250 5400 8150 5400
Wire Wire Line
	9250 5400 9250 5100
Wire Wire Line
	8150 5100 8150 5400
Connection ~ 8150 5400
Wire Wire Line
	8150 5400 9250 5400
$Comp
L power:GND #PWR023
U 1 1 60B416B3
P 8150 5400
F 0 "#PWR023" H 8150 5150 50  0001 C CNN
F 1 "GND" H 8155 5227 50  0000 C CNN
F 2 "" H 8150 5400 50  0001 C CNN
F 3 "" H 8150 5400 50  0001 C CNN
	1    8150 5400
	1    0    0    -1  
$EndComp
$Comp
L power:GND #PWR015
U 1 1 60B42FF1
P 4350 2000
F 0 "#PWR015" H 4350 1750 50  0001 C CNN
F 1 "GND" H 4355 1827 50  0000 C CNN
F 2 "" H 4350 2000 50  0001 C CNN
F 3 "" H 4350 2000 50  0001 C CNN
	1    4350 2000
	1    0    0    -1  
$EndComp
Wire Wire Line
	4350 1700 4350 2000
NoConn ~ 7400 3150
NoConn ~ 7500 3150
NoConn ~ 5600 2750
NoConn ~ 6000 3050
NoConn ~ 8150 4000
Wire Wire Line
	5600 1200 5600 1050
Wire Wire Line
	5600 1050 5850 1050
Connection ~ 5600 1200
Wire Wire Line
	7650 3450 7650 3300
Wire Wire Line
	7650 3300 8150 3300
Wire Wire Line
	8700 3300 8700 3450
NoConn ~ 8150 3300
NoConn ~ 7500 3650
$Comp
L power:GND #PWR012
U 1 1 60B5C1BB
P 2450 3200
F 0 "#PWR012" H 2450 2950 50  0001 C CNN
F 1 "GND" H 2455 3027 50  0000 C CNN
F 2 "" H 2450 3200 50  0001 C CNN
F 3 "" H 2450 3200 50  0001 C CNN
	1    2450 3200
	1    0    0    -1  
$EndComp
$Comp
L power:+5V #PWR017
U 1 1 60B735BA
P 6600 2450
F 0 "#PWR017" H 6600 2300 50  0001 C CNN
F 1 "+5V" H 6615 2623 50  0000 C CNN
F 2 "" H 6600 2450 50  0001 C CNN
F 3 "" H 6600 2450 50  0001 C CNN
	1    6600 2450
	1    0    0    -1  
$EndComp
Wire Wire Line
	7100 3850 7250 3850
Wire Wire Line
	7100 3650 7500 3650
Wire Wire Line
	7100 3550 7500 3550
Wire Wire Line
	7100 3450 7650 3450
Wire Wire Line
	7500 3350 7100 3350
Wire Wire Line
	7100 3250 7400 3250
Wire Wire Line
	7600 3150 7500 3150
$Comp
L 4xxx:4017 U3
U 1 1 60AFA067
P 6600 3250
F 0 "U3" H 6600 4231 50  0000 C CNN
F 1 "4017" H 6600 4140 50  0000 C CNN
F 2 "Package_SO:QSOP-24_3.9x8.7mm_P0.635mm" H 6600 3250 50  0001 C CNN
F 3 "http://www.intersil.com/content/dam/Intersil/documents/cd40/cd4017bms-22bms.pdf" H 6600 3250 50  0001 C CNN
	1    6600 3250
	1    0    0    -1  
$EndComp
$Comp
L power:GND #PWR020
U 1 1 60B8D493
P 7100 3050
F 0 "#PWR020" H 7100 2800 50  0001 C CNN
F 1 "GND" V 7105 2922 50  0000 R CNN
F 2 "" H 7100 3050 50  0001 C CNN
F 3 "" H 7100 3050 50  0001 C CNN
	1    7100 3050
	0    -1   -1   0   
$EndComp
$Comp
L power:GND #PWR019
U 1 1 60B8DE12
P 7100 2750
F 0 "#PWR019" H 7100 2500 50  0001 C CNN
F 1 "GND" V 7105 2622 50  0000 R CNN
F 2 "" H 7100 2750 50  0001 C CNN
F 3 "" H 7100 2750 50  0001 C CNN
	1    7100 2750
	0    -1   -1   0   
$EndComp
Wire Wire Line
	7100 2850 7250 2850
Wire Wire Line
	7250 2850 7250 2550
Wire Wire Line
	7100 2950 7350 2950
Wire Wire Line
	7350 2950 7350 2350
Wire Wire Line
	7350 2350 7200 2350
$Comp
L power:GND #PWR022
U 1 1 60B94E4A
P 7250 2550
F 0 "#PWR022" H 7250 2300 50  0001 C CNN
F 1 "GND" V 7255 2422 50  0000 R CNN
F 2 "" H 7250 2550 50  0001 C CNN
F 3 "" H 7250 2550 50  0001 C CNN
	1    7250 2550
	0    1    1    0   
$EndComp
$Comp
L power:GND #PWR021
U 1 1 60B95371
P 7200 2350
F 0 "#PWR021" H 7200 2100 50  0001 C CNN
F 1 "GND" V 7205 2222 50  0000 R CNN
F 2 "" H 7200 2350 50  0001 C CNN
F 3 "" H 7200 2350 50  0001 C CNN
	1    7200 2350
	0    1    1    0   
$EndComp
Wire Wire Line
	6600 4150 6600 4250
$Comp
L power:GND #PWR018
U 1 1 60BA622A
P 6600 4250
F 0 "#PWR018" H 6600 4000 50  0001 C CNN
F 1 "GND" H 6605 4077 50  0000 C CNN
F 2 "" H 6600 4250 50  0001 C CNN
F 3 "" H 6600 4250 50  0001 C CNN
	1    6600 4250
	1    0    0    -1  
$EndComp
Text HLabel 5850 1050 2    50   Input ~ 0
P5V
Wire Wire Line
	5600 3050 6000 3050
Wire Wire Line
	6000 2850 6000 3050
Connection ~ 2100 3000
Wire Wire Line
	2100 3000 1800 3000
Wire Wire Line
	2100 3000 2100 3400
Connection ~ 2950 3800
Wire Wire Line
	2950 3800 3900 3800
Wire Wire Line
	2950 3800 2950 5250
Connection ~ 5600 2750
Wire Wire Line
	5600 2750 6100 2750
Wire Wire Line
	5600 2750 5600 3050
Connection ~ 6000 3050
Wire Wire Line
	6000 3050 6100 3050
Wire Wire Line
	6000 3050 6000 4850
Connection ~ 7400 3150
Wire Wire Line
	7400 3150 7400 1800
Wire Wire Line
	7400 3150 7100 3150
Connection ~ 7500 3150
Wire Wire Line
	7500 3150 7500 3350
Wire Wire Line
	7500 3150 7400 3150
Connection ~ 7500 3650
Wire Wire Line
	7500 3650 7500 4000
Wire Wire Line
	7500 3650 7600 3650
Connection ~ 8150 3300
Wire Wire Line
	8150 3300 8150 3150
Wire Wire Line
	8150 3300 8700 3300
Connection ~ 8150 4000
Wire Wire Line
	8150 4000 8150 3650
Wire Wire Line
	8150 4000 8700 4000
Text Notes 8300 6750 0    118  ~ 24
LED Status Output
Text Notes 9700 4750 0    118  Italic 24
LED Output
Text Notes 6250 1100 0    118  Italic 24
Input
$EndSCHEMATC
