EESchema Schematic File Version 4
EELAYER 30 0
EELAYER END
$Descr A4 11693 8268
encoding utf-8
Sheet 1 4
Title "Raspberry Pi Zero (W) uHAT Template Board"
Date "2019-02-28"
Rev "1.0"
Comp "EEE3088F Design"
Comment1 "This Schematic is licensed under MIT Open Source License."
Comment2 ""
Comment3 ""
Comment4 ""
$EndDescr
$Sheet
S 1000 3850 1550 2000
U 60B3876D
F0 "Amplifier_diagram" 50
F1 "Amplifier.sch" 50
F2 "P3.3V" O L 1000 4000 50 
F3 "P5V" I L 1000 4200 50 
$EndSheet
$Sheet
S 8700 4300 2150 1700
U 60B38B90
F0 "PSU" 50
F1 "power_regulator.sch" 50
F2 "P5V" O L 8700 4450 50 
$EndSheet
$Sheet
S 4600 1750 3050 1300
U 60B38CDE
F0 "Status LED Output Schematic" 50
F1 "Status LED Output Schematic.sch" 50
F2 "P5V" I L 4600 1950 50 
$EndSheet
$Comp
L Mechanical:MountingHole H4
U 1 1 5C7C8030
P 7650 5100
F 0 "H4" H 7750 5146 50  0000 L CNN
F 1 "MountingHole" H 7750 5055 50  0000 L CNN
F 2 "lib:MountingHole_2.7mm_M2.5_uHAT_RPi" H 7650 5100 50  0001 C CNN
F 3 "~" H 7650 5100 50  0001 C CNN
	1    7650 5100
	1    0    0    -1  
$EndComp
$Comp
L Mechanical:MountingHole H3
U 1 1 5C7C8014
P 7650 4900
F 0 "H3" H 7750 4946 50  0000 L CNN
F 1 "MountingHole" H 7750 4855 50  0000 L CNN
F 2 "lib:MountingHole_2.7mm_M2.5_uHAT_RPi" H 7650 4900 50  0001 C CNN
F 3 "~" H 7650 4900 50  0001 C CNN
	1    7650 4900
	1    0    0    -1  
$EndComp
$Comp
L Mechanical:MountingHole H2
U 1 1 5C7C7FBC
P 7650 4700
F 0 "H2" H 7750 4746 50  0000 L CNN
F 1 "MountingHole" H 7750 4655 50  0000 L CNN
F 2 "LED_SMD:LED_0402_1005Metric_Castellated" H 7650 4700 50  0001 C CNN
F 3 "~" H 7650 4700 50  0001 C CNN
	1    7650 4700
	1    0    0    -1  
$EndComp
$Comp
L Mechanical:MountingHole H1
U 1 1 5C7C4C81
P 7650 4500
F 0 "H1" H 7750 4546 50  0000 L CNN
F 1 "MountingHole" H 7750 4455 50  0000 L CNN
F 2 "LED_SMD:LED_0201_0603Metric_Castellated" H 7650 4500 50  0001 C CNN
F 3 "~" H 7650 4500 50  0001 C CNN
	1    7650 4500
	1    0    0    -1  
$EndComp
Wire Notes Line
	7600 4100 7600 3750
Wire Wire Line
	4950 5850 6000 5850
NoConn ~ 6000 5850
NoConn ~ 6000 5750
NoConn ~ 6000 5650
NoConn ~ 6000 5450
NoConn ~ 6000 5250
NoConn ~ 6000 5150
NoConn ~ 6000 5050
NoConn ~ 6000 4950
NoConn ~ 6000 4750
NoConn ~ 6000 4650
NoConn ~ 6000 4450
NoConn ~ 6000 4350
NoConn ~ 6000 4250
Wire Wire Line
	4950 5750 6000 5750
Wire Wire Line
	4950 5650 6000 5650
Wire Wire Line
	4950 5450 6000 5450
Wire Wire Line
	4950 5250 6000 5250
Wire Wire Line
	4950 4950 6000 4950
Wire Wire Line
	4950 4750 6000 4750
Wire Wire Line
	4950 4650 6000 4650
Wire Wire Line
	4950 4450 6000 4450
Wire Wire Line
	4950 4350 6000 4350
Wire Wire Line
	4950 4250 6000 4250
Text Label 5300 5850 0    50   ~ 0
GPIO21
Text Label 5300 5750 0    50   ~ 0
GPIO20
Text Label 5300 5650 0    50   ~ 0
GPIO16
Text Label 5300 5450 0    50   ~ 0
GPIO12
Text Label 5300 5250 0    50   ~ 0
ID_SC
Wire Wire Line
	4950 5150 6000 5150
Wire Wire Line
	4950 5050 6000 5050
Text Label 5300 5150 0    50   ~ 0
GPIO7_SPI_CE1_N
Text Label 5300 5050 0    50   ~ 0
GPIO8_SPI_CE0_N
Text Label 5300 4950 0    50   ~ 0
GPIO25_GEN6
Text Label 5300 4750 0    50   ~ 0
GPIO24_GEN5
Text Label 5300 4650 0    50   ~ 0
GPIO23_GEN4
Text Label 5300 4450 0    50   ~ 0
GPIO18_GEN1
Text Label 5300 4350 0    50   ~ 0
GPIO15_RXD0
Text Label 5300 4250 0    50   ~ 0
GPIO14_TXD0
NoConn ~ 3400 5750
NoConn ~ 3400 5650
NoConn ~ 3400 5550
NoConn ~ 3400 5450
NoConn ~ 3400 5350
NoConn ~ 3400 5250
NoConn ~ 3400 5050
NoConn ~ 3400 4950
NoConn ~ 3400 4850
NoConn ~ 3400 4650
NoConn ~ 3400 4550
NoConn ~ 3400 4450
NoConn ~ 3400 4250
NoConn ~ 3400 4150
NoConn ~ 3400 4050
Text Label 3500 5750 0    50   ~ 0
GPIO26
Text Label 3500 5650 0    50   ~ 0
GPIO19
Text Label 3500 5550 0    50   ~ 0
GPIO13
Text Label 3500 5450 0    50   ~ 0
GPIO6
Text Label 3500 5350 0    50   ~ 0
GPIO5
Text Label 3500 5250 0    50   ~ 0
ID_SD
Text Label 3500 5050 0    50   ~ 0
GPIO11_SPI_SCLK
Text Label 3500 4950 0    50   ~ 0
GPIO9_SPI_MISO
Wire Wire Line
	3400 4050 4450 4050
Wire Wire Line
	3400 4150 4450 4150
Wire Wire Line
	3400 4250 4450 4250
Wire Wire Line
	3400 4450 4450 4450
Wire Wire Line
	3400 4550 4450 4550
Wire Wire Line
	3400 4650 4450 4650
Wire Wire Line
	3400 5750 4450 5750
Wire Wire Line
	3400 5650 4450 5650
Wire Wire Line
	3400 5550 4450 5550
Wire Wire Line
	3400 5450 4450 5450
Wire Wire Line
	3400 5350 4450 5350
Wire Wire Line
	3400 5250 4450 5250
Wire Wire Line
	3400 5050 4450 5050
Wire Wire Line
	3400 4950 4450 4950
Wire Wire Line
	3400 4850 4450 4850
Text Label 3500 4850 0    50   ~ 0
GPIO10_SPI_MOSI
Text Label 3500 4650 0    50   ~ 0
GPIO22_GEN3
Text Label 3500 4550 0    50   ~ 0
GPIO27_GEN2
Text Label 3500 4450 0    50   ~ 0
GPIO17_GEN0
Text Label 3500 4250 0    50   ~ 0
GPIO4_GPIO_GCLK
Text Label 3500 4150 0    50   ~ 0
GPIO3_SCL1
Text Label 3500 4050 0    50   ~ 0
GPIO2_SDA1
Wire Wire Line
	5600 3850 5600 3950
Wire Wire Line
	5250 3950 5600 3950
$Comp
L power:PWR_FLAG #FLG03
U 1 1 5C77CEFA
P 5600 3850
F 0 "#FLG03" H 5600 3925 50  0001 C CNN
F 1 "PWR_FLAG" H 5600 4024 50  0000 C CNN
F 2 "" H 5600 3850 50  0001 C CNN
F 3 "~" H 5600 3850 50  0001 C CNN
	1    5600 3850
	1    0    0    -1  
$EndComp
Wire Wire Line
	3800 3950 4200 3950
Wire Wire Line
	3800 3950 3800 3850
Wire Wire Line
	4200 3950 4450 3950
Wire Notes Line
	7600 3750 5750 3750
Wire Notes Line
	5750 4100 7600 4100
Wire Notes Line
	5750 3750 5750 4100
Text Notes 5800 4050 0    50   ~ 10
If back powering Pi with 5V \nNOTE that the Raspberry Pi 3B+ and Pi Zero \nand ZeroW do not include an input ZVD.
Wire Wire Line
	3850 6050 3850 6100
$Comp
L power:PWR_FLAG #FLG02
U 1 1 5C778511
P 3850 6050
F 0 "#FLG02" H 3850 6125 50  0001 C CNN
F 1 "PWR_FLAG" H 3850 6224 50  0000 C CNN
F 2 "" H 3850 6050 50  0001 C CNN
F 3 "~" H 3850 6050 50  0001 C CNN
	1    3850 6050
	1    0    0    -1  
$EndComp
$Comp
L power:GND #PWR01
U 1 1 5C778504
P 3850 6100
F 0 "#PWR01" H 3850 5850 50  0001 C CNN
F 1 "GND" H 3855 5927 50  0001 C CNN
F 2 "" H 3850 6100 50  0001 C CNN
F 3 "" H 3850 6100 50  0001 C CNN
	1    3850 6100
	1    0    0    -1  
$EndComp
$Comp
L power:PWR_FLAG #FLG01
U 1 1 5C77824A
P 3800 3850
F 0 "#FLG01" H 3800 3925 50  0001 C CNN
F 1 "PWR_FLAG" H 3800 4024 50  0000 C CNN
F 2 "" H 3800 3850 50  0001 C CNN
F 3 "~" H 3800 3850 50  0001 C CNN
	1    3800 3850
	1    0    0    -1  
$EndComp
Connection ~ 5250 3950
Wire Wire Line
	5250 4050 5250 3950
Wire Wire Line
	4950 4050 5250 4050
Wire Wire Line
	5250 3950 5250 3900
Wire Wire Line
	4950 3950 5250 3950
$Comp
L power:+5V #PWR05
U 1 1 5C777E01
P 5250 3850
F 0 "#PWR05" H 5250 3700 50  0001 C CNN
F 1 "+5V" H 5265 4023 50  0000 C CNN
F 2 "" H 5250 3850 50  0001 C CNN
F 3 "" H 5250 3850 50  0001 C CNN
	1    5250 3850
	1    0    0    -1  
$EndComp
Connection ~ 4200 3950
Wire Wire Line
	4200 4750 4200 3950
Wire Wire Line
	4450 4750 4200 4750
Wire Wire Line
	4200 3950 4200 3900
$Comp
L power:+3.3V #PWR02
U 1 1 5C777AB0
P 4200 3850
F 0 "#PWR02" H 4200 3700 50  0001 C CNN
F 1 "+3.3V" H 4215 4023 50  0000 C CNN
F 2 "" H 4200 3850 50  0001 C CNN
F 3 "" H 4200 3850 50  0001 C CNN
	1    4200 3850
	1    0    0    -1  
$EndComp
Wire Wire Line
	5150 5550 5150 6000
Connection ~ 5150 5550
Wire Wire Line
	4950 5550 5150 5550
Wire Wire Line
	5150 5350 5150 5550
Connection ~ 5150 5350
Wire Wire Line
	5150 4850 5150 5350
Wire Wire Line
	4950 5350 5150 5350
Connection ~ 5150 4850
Wire Wire Line
	4950 4850 5150 4850
Wire Wire Line
	5150 4550 5150 4850
Connection ~ 5150 4550
Wire Wire Line
	4950 4550 5150 4550
Wire Wire Line
	5150 4150 5150 4550
Wire Wire Line
	4950 4150 5150 4150
Wire Wire Line
	4250 5850 4250 6000
Connection ~ 4250 5850
Wire Wire Line
	4450 5850 4250 5850
Wire Wire Line
	4250 5150 4250 5850
Connection ~ 4250 5150
Wire Wire Line
	4450 5150 4250 5150
Wire Wire Line
	4250 4350 4250 5150
Wire Wire Line
	4450 4350 4250 4350
$Comp
L power:GND #PWR04
U 1 1 5C777838
P 5150 6000
F 0 "#PWR04" H 5150 5750 50  0001 C CNN
F 1 "GND" H 5155 5827 50  0001 C CNN
F 2 "" H 5150 6000 50  0001 C CNN
F 3 "" H 5150 6000 50  0001 C CNN
	1    5150 6000
	1    0    0    -1  
$EndComp
$Comp
L power:GND #PWR03
U 1 1 5C777805
P 4250 6000
F 0 "#PWR03" H 4250 5750 50  0001 C CNN
F 1 "GND" H 4255 5827 50  0001 C CNN
F 2 "" H 4250 6000 50  0001 C CNN
F 3 "" H 4250 6000 50  0001 C CNN
	1    4250 6000
	1    0    0    -1  
$EndComp
$Comp
L Connector_Generic:Conn_02x20_Odd_Even J1
U 1 1 5C77771F
P 4650 4850
F 0 "J1" H 4700 5967 50  0000 C CNN
F 1 "GPIO_CONNECTOR" H 4700 5876 50  0000 C CNN
F 2 "lib:PinSocket_2x20_P2.54mm_Vertical_Centered_Anchor" H 4650 4850 50  0001 C CNN
F 3 "~" H 4650 4850 50  0001 C CNN
	1    4650 4850
	1    0    0    -1  
$EndComp
Wire Wire Line
	8700 4450 8250 4450
Wire Wire Line
	8250 4450 8250 3600
Wire Wire Line
	8250 3600 5400 3600
Wire Wire Line
	5400 3600 5400 3900
Wire Wire Line
	5400 3900 5250 3900
Connection ~ 5250 3900
Wire Wire Line
	5250 3900 5250 3850
Wire Wire Line
	4600 1950 4200 1950
Wire Wire Line
	4200 1950 4200 3350
Wire Wire Line
	5100 3350 5100 3850
Wire Wire Line
	5100 3850 5250 3850
Connection ~ 5250 3850
Wire Wire Line
	1000 4000 950  4000
Wire Wire Line
	950  4000 950  3550
Wire Wire Line
	950  3550 4050 3550
Wire Wire Line
	4050 3550 4050 3900
Wire Wire Line
	4050 3900 4200 3900
Connection ~ 4200 3900
Wire Wire Line
	4200 3900 4200 3850
Wire Wire Line
	1000 4200 750  4200
Wire Wire Line
	750  4200 750  3350
Connection ~ 4200 3350
Wire Wire Line
	4200 3350 5100 3350
Wire Wire Line
	750  3350 4200 3350
Text Notes 8050 6750 0    118  Italic 24
Raspberry Board
$EndSCHEMATC
